%YAML 1.1
%TAG !u! tag:unity3d.com,2011:
--- !u!1045 &1
EditorBuildSettings:
  m_ObjectHideFlags: 0
  serializedVersion: 2
  m_Scenes:
  - enabled: 1
    path: Assets/Scenes/Impacts_salud.unity
    guid: 5a7674d7d4fc87543a4ca5f1f3c71ee6
  - enabled: 1
    path: Assets/Scenes/Benefits.unity
    guid: 1eb4ffeca98450a41917e307eb163b1a
  - enabled: 1
    path: Assets/Scenes/Impacts.unity
    guid: 7a7d2c5a46bfc24478956c63635d91e4
  - enabled: 1
    path: Assets/Scenes/Impacts_ambiental.unity
    guid: ea72954626ae5114b829c586e5cc43b6
  - enabled: 1
    path: Assets/Scenes/Impacts_social.unity
    guid: 2ae9f2ebdaf1bdd41b847c0543f45457
  - enabled: 1
    path: Assets/Scenes/Juego_1.unity
    guid: bd8e90afc1ae9624e9f2edc9cfb2763d
  - enabled: 1
    path: Assets/Scenes/Juego_2.unity
    guid: 57b14d45f234f4e42a7a5d7faee46dcd
  - enabled: 1
    path: Assets/Scenes/Juego_3.unity
    guid: 0c076403781117f4f9f134c3d2f4f3d7
  - enabled: 1
    path: Assets/Scenes/Juego_4.unity
    guid: 00f18ba80d7aef0469e4485ccb126061
  - enabled: 1
    path: Assets/Scenes/MainScene.unity
    guid: 9fc0d4010bbf28b4594072e72b8655ab
  - enabled: 1
    path: Assets/Scenes/Ranking.unity
    guid: 42a5c474e84d8b04289308e8199f4039
  - enabled: 1
    path: Assets/Scenes/Recycle.unity
    guid: 11b143d974785c143a960abd592f9630
  m_configObjects: {}
